{
    "photos": {
        "page": 1,
        "pages": 39728,
        "perpage": 6,
        "total": "238367",
        "photo": [
            {
                "id": "22375036136",
                "owner": "11299883@N08",
                "secret": "ef422fd9f4",
                "server": "738",
                "farm": 1,
                "title": "Gato protegido",
                "ispublic": 1,
                "isfriend": 0,
                "isfamily": 0
            },
            {
                "id": "21777942324",
                "owner": "73435359@N07",
                "secret": "8fe7668e84",
                "server": "5790",
                "farm": 6,
                "title": "JPEG_20110328-205942_NikonD90_Uzbekistan-Tashkent-Yasha",
                "ispublic": 1,
                "isfriend": 0,
                "isfamily": 0
            },
            {
                "id": "22400853865",
                "owner": "134670673@N06",
                "secret": "e8f37422b3",
                "server": "569",
                "farm": 1,
                "title": "Ninja",
                "ispublic": 1,
                "isfriend": 0,
                "isfamily": 0
            },
            {
                "id": "22213791619",
                "owner": "21545301@N05",
                "secret": "edc3cb4444",
                "server": "5814",
                "farm": 6,
                "title": "promenade",
                "ispublic": 1,
                "isfriend": 0,
                "isfamily": 0
            },
            {
                "id": "21777479244",
                "owner": "73943431@N07",
                "secret": "32c0748147",
                "server": "683",
                "farm": 1,
                "title": "Hangin' Out",
                "ispublic": 1,
                "isfriend": 0,
                "isfamily": 0
            },
            {
                "id": "22212235310",
                "owner": "73943431@N07",
                "secret": "54c91e6d85",
                "server": "577",
                "farm": 1,
                "title": "Hangin' Out",
                "ispublic": 1,
                "isfriend": 0,
                "isfamily": 0
            }
        ]
    },
    "stat": "ok"
}